\relax 
\providecommand\hyper@newdestlabel[2]{}
\providecommand*{\memsetcounter}[2]{}
\@nameuse{bbl@beforestart}
\catcode `"\active 
\catcode `<\active 
\catcode `>\active 
\@nameuse{es@quoting}
\providecommand\HyperFirstAtBeginDocument{\AtBeginDocument}
\HyperFirstAtBeginDocument{\ifx\hyper@anchor\@undefined
\global\let\oldcontentsline\contentsline
\gdef\contentsline#1#2#3#4{\oldcontentsline{#1}{#2}{#3}}
\global\let\oldnewlabel\newlabel
\gdef\newlabel#1#2{\newlabelxx{#1}#2}
\gdef\newlabelxx#1#2#3#4#5#6{\oldnewlabel{#1}{{#2}{#3}}}
\AtEndDocument{\ifx\hyper@anchor\@undefined
\let\contentsline\oldcontentsline
\let\newlabel\oldnewlabel
\fi}
\fi}
\global\let\hyper@last\relax 
\gdef\HyperFirstAtBeginDocument#1{#1}
\providecommand*\HyPL@Entry[1]{}
\HyPL@Entry{0<</S/D>>}
\providecommand\@newglossary[4]{}
\@newglossary{main}{glg}{gls}{glo}
\babel@aux{spanish}{}
\providecommand\@gls@reference[3]{}
\HyPL@Entry{2<</S/r>>}
\@writefile{toc}{\contentsline {chapter}{Índice general}{\es@scroman  {iii}}{section*.2}\protected@file@percent }
\@writefile{toc}{\contentsline {chapter}{Índice de figuras}{\es@scroman  {iv}}{section*.3}\protected@file@percent }
\citation{Boids}
\citation{Freeling}
\citation{HER}
\citation{BMW: Coches autónomos}
\HyPL@Entry{8<</S/D>>}
\@writefile{lof}{\addvspace {10pt}}
\@writefile{lot}{\addvspace {10pt}}
\@writefile{toc}{\contentsline {chapter}{\chapternumberline {1}Memoria}{1}{chapter.1}\protected@file@percent }
\newlabel{chap:memoria}{{\M@TitleReference {1}{Memoria}}{1}{Memoria}{chapter.1}{}}
\@writefile{toc}{\contentsline {section}{\numberline {1.1}Presentación}{1}{section.1.1}\protected@file@percent }
\newlabel{sec:presentacion}{{\M@TitleReference {1.1}{Presentación}}{1}{Presentación}{section.1.1}{}}
\@writefile{toc}{\contentsline {subsection}{Resumen}{1}{section*.5}\protected@file@percent }
\newlabel{sec:resumen}{{\M@TitleReference {1.1}{Resumen}}{1}{Resumen}{section*.5}{}}
\@gls@reference{main}{inteligencia artificial}{\glsnoidxdisplayloc{}{page}{glsnumberformat}{1}}
\@gls@reference{main}{boid}{\glsnoidxdisplayloc{}{page}{glsnumberformat}{1}}
\@gls@reference{main}{análisis del lenguaje natural}{\glsnoidxdisplayloc{}{page}{glsnumberformat}{1}}
\@gls@reference{main}{algoritmo}{\glsnoidxdisplayloc{}{page}{glsnumberformat}{1}}
\@writefile{toc}{\contentsline {subsection}{Motivación}{2}{section*.6}\protected@file@percent }
\newlabel{sec:motivacion}{{\M@TitleReference {1.1}{Motivación}}{2}{Motivación}{section*.6}{}}
\@writefile{toc}{\contentsline {subsection}{Alcance}{2}{section*.7}\protected@file@percent }
\newlabel{sec:alcance}{{\M@TitleReference {1.1}{Alcance}}{2}{Alcance}{section*.7}{}}
\@gls@reference{main}{análisis morfológico}{\glsnoidxdisplayloc{}{page}{glsnumberformat}{3}}
\@gls@reference{main}{Samantha}{\glsnoidxdisplayloc{}{page}{glsnumberformat}{3}}
\@writefile{toc}{\contentsline {subsection}{Objetivo}{3}{section*.8}\protected@file@percent }
\newlabel{sec:objetivo}{{\M@TitleReference {1.1}{Objetivo}}{3}{Objetivo}{section*.8}{}}
\@gls@reference{main}{vectores}{\glsnoidxdisplayloc{}{page}{glsnumberformat}{3}}
\@writefile{lof}{\contentsline {figure}{\numberline {1.1}{\ignorespaces Menú de elección del comportamiento del boid.}}{4}{figure.1.1}\protected@file@percent }
\@writefile{lof}{\contentsline {figure}{\numberline {1.2}{\ignorespaces Resultado del calculo dependiendo del comportamiento y del objetivo.}}{4}{figure.1.2}\protected@file@percent }
\@gls@reference{main}{interfaz}{\glsnoidxdisplayloc{}{page}{glsnumberformat}{4}}
\@gls@reference{main}{ASCII}{\glsnoidxdisplayloc{}{page}{glsnumberformat}{4}}
\@writefile{lof}{\contentsline {figure}{\numberline {1.3}{\ignorespaces Interfaz para representar los boids.}}{5}{figure.1.3}\protected@file@percent }
\@writefile{lof}{\contentsline {figure}{\numberline {1.4}{\ignorespaces Análisis de oraciones en Verboids.}}{5}{figure.1.4}\protected@file@percent }
\@writefile{lof}{\contentsline {figure}{\numberline {1.5}{\ignorespaces Ejemplo orden dirigida a Samantha}}{6}{figure.1.5}\protected@file@percent }
\@writefile{toc}{\contentsline {section}{\numberline {1.2}Exposición}{7}{section.1.2}\protected@file@percent }
\newlabel{sec:exposicion}{{\M@TitleReference {1.2}{Exposición}}{7}{Exposición}{section.1.2}{}}
\@writefile{toc}{\contentsline {subsection}{Tecnologías y herramientas empleadas}{7}{section*.9}\protected@file@percent }
\newlabel{sec:tecnologiasyherramientas}{{\M@TitleReference {1.2}{Tecnologías y herramientas empleadas}}{7}{Tecnologías y herramientas empleadas}{section*.9}{}}
\@gls@reference{main}{hardware}{\glsnoidxdisplayloc{}{page}{glsnumberformat}{7}}
\@writefile{toc}{\contentsline {subsection}{Funcionamiento del programa}{8}{section*.10}\protected@file@percent }
\newlabel{sec:funcionprincipal}{{\M@TitleReference {1.2}{Funcionamiento del programa}}{8}{Funcionamiento del programa}{section*.10}{}}
\@writefile{lof}{\contentsline {figure}{\numberline {1.6}{\ignorespaces Interfaz carga del programa.}}{8}{figure.1.6}\protected@file@percent }
\@writefile{toc}{\contentsline {subsection}{Herramienta Freeling}{9}{section*.11}\protected@file@percent }
\newlabel{sec:freeling}{{\M@TitleReference {1.2}{Herramienta Freeling}}{9}{Herramienta Freeling}{section*.11}{}}
\@writefile{toc}{\contentsline {subsection}{Diseño de los boids}{10}{section*.12}\protected@file@percent }
\newlabel{sec:diseñoboids}{{\M@TitleReference {1.2}{Diseño de los boids}}{10}{Diseño de los boids}{section*.12}{}}
\@writefile{lof}{\contentsline {figure}{\numberline {1.7}{\ignorespaces Boid: comportamiento de separación}}{10}{figure.1.7}\protected@file@percent }
\@writefile{lof}{\contentsline {figure}{\numberline {1.8}{\ignorespaces Boid: comportamiento de alineación.}}{11}{figure.1.8}\protected@file@percent }
\@writefile{lof}{\contentsline {figure}{\numberline {1.9}{\ignorespaces Boid: comportamiento de cohesión.}}{11}{figure.1.9}\protected@file@percent }
\@writefile{lof}{\contentsline {figure}{\numberline {1.10}{\ignorespaces Boid: comportamiento de evadir y perseguir.}}{11}{figure.1.10}\protected@file@percent }
\@writefile{toc}{\contentsline {subsection}{Diseño de la interfaz}{12}{section*.13}\protected@file@percent }
\newlabel{sec:diseñointerfaz}{{\M@TitleReference {1.2}{Diseño de la interfaz}}{12}{Diseño de la interfaz}{section*.13}{}}
\@writefile{toc}{\contentsline {subsection}{Diseño de la inteligencia artificial de los Boids}{13}{section*.14}\protected@file@percent }
\newlabel{sec:diseñoaiboids}{{\M@TitleReference {1.2}{Diseño de la inteligencia artificial de los Boids}}{13}{Diseño de la inteligencia artificial de los Boids}{section*.14}{}}
\@writefile{toc}{\contentsline {subsection}{Diseño de la inteligencia artificial de Samantha}{15}{section*.15}\protected@file@percent }
\newlabel{sec:diseñoaisamantha}{{\M@TitleReference {1.2}{Diseño de la inteligencia artificial de Samantha}}{15}{Diseño de la inteligencia artificial de Samantha}{section*.15}{}}
\@writefile{lof}{\contentsline {figure}{\numberline {1.11}{\ignorespaces Análisis de oraciones}}{16}{figure.1.11}\protected@file@percent }
\@writefile{toc}{\contentsline {subsection}{Pruebas}{17}{section*.16}\protected@file@percent }
\newlabel{sec:pruebas}{{\M@TitleReference {1.2}{Pruebas}}{17}{Pruebas}{section*.16}{}}
\@writefile{toc}{\contentsline {section}{\numberline {1.3}Conclusiones}{19}{section.1.3}\protected@file@percent }
\newlabel{sec:conclusiones}{{\M@TitleReference {1.3}{Conclusiones}}{19}{Conclusiones}{section.1.3}{}}
\@writefile{toc}{\contentsline {subsection}{Grado de Consecución de los Objetivos}{19}{section*.17}\protected@file@percent }
\newlabel{sec:consecucion_objetivos}{{\M@TitleReference {1.3}{Grado de Consecución de los Objetivos}}{19}{Grado de Consecución de los Objetivos}{section*.17}{}}
\@writefile{lof}{\contentsline {figure}{\numberline {1.12}{\ignorespaces Interfaz de carga}}{19}{figure.1.12}\protected@file@percent }
\@writefile{lof}{\contentsline {figure}{\numberline {1.13}{\ignorespaces Interfaz fin de carga}}{20}{figure.1.13}\protected@file@percent }
\@writefile{lof}{\contentsline {figure}{\numberline {1.14}{\ignorespaces Interfaz boids}}{20}{figure.1.14}\protected@file@percent }
\@writefile{lof}{\contentsline {figure}{\numberline {1.15}{\ignorespaces Interfaz análisis de oraciones}}{21}{figure.1.15}\protected@file@percent }
\@writefile{lof}{\contentsline {figure}{\numberline {1.16}{\ignorespaces Interfaz manual de usuario}}{21}{figure.1.16}\protected@file@percent }
\@writefile{toc}{\contentsline {subsection}{Análisis del Alcance}{22}{section*.18}\protected@file@percent }
\newlabel{sec:analisis_alcance}{{\M@TitleReference {1.3}{Análisis del Alcance}}{22}{Análisis del Alcance}{section*.18}{}}
\@writefile{toc}{\contentsline {subsection}{Puntos de Interés}{22}{section*.19}\protected@file@percent }
\newlabel{sec:puntos_interes}{{\M@TitleReference {1.3}{Puntos de Interés}}{22}{Puntos de Interés}{section*.19}{}}
\@writefile{toc}{\contentsline {subsection}{Aprendizajes}{23}{section*.20}\protected@file@percent }
\newlabel{sec:aprendizajes}{{\M@TitleReference {1.3}{Aprendizajes}}{23}{Aprendizajes}{section*.20}{}}
\@writefile{toc}{\contentsline {subsection}{Reflexión}{23}{section*.21}\protected@file@percent }
\newlabel{sec:reflexion}{{\M@TitleReference {1.3}{Reflexión}}{23}{Reflexión}{section*.21}{}}
\@writefile{lof}{\addvspace {10pt}}
\@writefile{lot}{\addvspace {10pt}}
\@writefile{toc}{\contentsline {chapter}{\chapternumberline {2}Anexos}{25}{chapter.2}\protected@file@percent }
\newlabel{chap:anexos}{{\M@TitleReference {2}{Anexos}}{25}{Anexos}{chapter.2}{}}
\@writefile{toc}{\contentsline {section}{\numberline {2.1}Diagramas UML}{25}{section.2.1}\protected@file@percent }
\newlabel{sec:uml}{{\M@TitleReference {2.1}{Diagramas UML}}{25}{Diagramas UML}{section.2.1}{}}
\@writefile{toc}{\contentsline {subsection}{Diagrama de clases}{25}{section*.22}\protected@file@percent }
\newlabel{sec:diagramaclases}{{\M@TitleReference {2.1}{Diagrama de clases}}{25}{Diagrama de clases}{section*.22}{}}
\@writefile{toc}{\contentsline {subsection}{Diagrama de actividad}{26}{section*.23}\protected@file@percent }
\newlabel{sec:diagramaactividad}{{\M@TitleReference {2.1}{Diagrama de actividad}}{26}{Diagrama de actividad}{section*.23}{}}
\@writefile{toc}{\contentsline {subsection}{Diagrama de casos de uso}{27}{section*.24}\protected@file@percent }
\newlabel{sec:diagramacasos}{{\M@TitleReference {2.1}{Diagrama de casos de uso}}{27}{Diagrama de casos de uso}{section*.24}{}}
\@writefile{toc}{\contentsline {subsection}{Diagrama de secuencia}{27}{section*.25}\protected@file@percent }
\newlabel{sec:diagramasecuencia}{{\M@TitleReference {2.1}{Diagrama de secuencia}}{27}{Diagrama de secuencia}{section*.25}{}}
\@writefile{toc}{\contentsline {section}{\numberline {2.2}Código}{28}{section.2.2}\protected@file@percent }
\newlabel{sec:codigo}{{\M@TitleReference {2.2}{Código}}{28}{Código}{section.2.2}{}}
\@writefile{toc}{\contentsline {subsection}{Main.cpp}{28}{section*.26}\protected@file@percent }
\newlabel{sec:main}{{\M@TitleReference {2.2}{Main.cpp}}{28}{Main.cpp}{section*.26}{}}
\@writefile{lol}{\contentsline {lstlisting}{\numberline {2.1}main.cpp}{28}{lstlisting.2.1}\protected@file@percent }
\@writefile{toc}{\contentsline {subsection}{Mmap.cpp}{31}{section*.27}\protected@file@percent }
\newlabel{sec:mmapcpp}{{\M@TitleReference {2.2}{Mmap.cpp}}{31}{Mmap.cpp}{section*.27}{}}
\@writefile{lol}{\contentsline {lstlisting}{\numberline {2.2}mmap.cpp}{31}{lstlisting.2.2}\protected@file@percent }
\@writefile{toc}{\contentsline {subsection}{Mmap.h}{32}{section*.28}\protected@file@percent }
\newlabel{sec:mmaph}{{\M@TitleReference {2.2}{Mmap.h}}{32}{Mmap.h}{section*.28}{}}
\@writefile{lol}{\contentsline {lstlisting}{\numberline {2.3}mmap.h}{32}{lstlisting.2.3}\protected@file@percent }
\@writefile{toc}{\contentsline {subsection}{Boid.cpp}{32}{section*.29}\protected@file@percent }
\newlabel{sec:boidcpp}{{\M@TitleReference {2.2}{Boid.cpp}}{32}{Boid.cpp}{section*.29}{}}
\@writefile{lol}{\contentsline {lstlisting}{\numberline {2.4}boid.cpp}{32}{lstlisting.2.4}\protected@file@percent }
\@writefile{toc}{\contentsline {subsection}{Boid.h}{36}{section*.30}\protected@file@percent }
\newlabel{sec:boidh}{{\M@TitleReference {2.2}{Boid.h}}{36}{Boid.h}{section*.30}{}}
\@writefile{lol}{\contentsline {lstlisting}{\numberline {2.5}boid.h}{36}{lstlisting.2.5}\protected@file@percent }
\@writefile{toc}{\contentsline {subsection}{Vec2d.cpp}{37}{section*.31}\protected@file@percent }
\newlabel{sec:vec2dcpp}{{\M@TitleReference {2.2}{Vec2d.cpp}}{37}{Vec2d.cpp}{section*.31}{}}
\@writefile{lol}{\contentsline {lstlisting}{\numberline {2.6}vec2d.cpp}{37}{lstlisting.2.6}\protected@file@percent }
\@writefile{toc}{\contentsline {subsection}{Vec2d.h}{40}{section*.32}\protected@file@percent }
\newlabel{sec:vec2dh}{{\M@TitleReference {2.2}{Vec2d.h}}{40}{Vec2d.h}{section*.32}{}}
\@writefile{lol}{\contentsline {lstlisting}{\numberline {2.7}vec2d.h}{40}{lstlisting.2.7}\protected@file@percent }
\@writefile{toc}{\contentsline {subsection}{targetable.h}{41}{section*.33}\protected@file@percent }
\newlabel{sec:targetableh}{{\M@TitleReference {2.2}{targetable.h}}{41}{targetable.h}{section*.33}{}}
\@writefile{lol}{\contentsline {lstlisting}{\numberline {2.8}targetable.h}{41}{lstlisting.2.8}\protected@file@percent }
\@writefile{toc}{\contentsline {subsection}{Makefile}{41}{section*.34}\protected@file@percent }
\newlabel{sec:makefile}{{\M@TitleReference {2.2}{Makefile}}{41}{Makefile}{section*.34}{}}
\@writefile{lol}{\contentsline {lstlisting}{\numberline {2.9}Makefile}{41}{lstlisting.2.9}\protected@file@percent }
\@writefile{toc}{\contentsline {subsection}{Freeling}{42}{section*.35}\protected@file@percent }
\newlabel{sec:freelingcpp}{{\M@TitleReference {2.2}{Freeling}}{42}{Freeling}{section*.35}{}}
\@writefile{lol}{\contentsline {lstlisting}{\numberline {2.10}freeling.cpp}{42}{lstlisting.2.10}\protected@file@percent }
\@writefile{toc}{\contentsline {subsection}{Freeling.h}{47}{section*.36}\protected@file@percent }
\newlabel{sec:freelingh}{{\M@TitleReference {2.2}{Freeling.h}}{47}{Freeling.h}{section*.36}{}}
\@writefile{lol}{\contentsline {lstlisting}{\numberline {2.11}freeling.h}{47}{lstlisting.2.11}\protected@file@percent }
\@writefile{toc}{\contentsline {subsection}{Ai.cpp}{47}{section*.37}\protected@file@percent }
\newlabel{sec:aicpp}{{\M@TitleReference {2.2}{Ai.cpp}}{47}{Ai.cpp}{section*.37}{}}
\@writefile{lol}{\contentsline {lstlisting}{\numberline {2.12}ai.cpp}{47}{lstlisting.2.12}\protected@file@percent }
\@writefile{toc}{\contentsline {subsection}{Ai.h}{51}{section*.38}\protected@file@percent }
\newlabel{sec:aih}{{\M@TitleReference {2.2}{Ai.h}}{51}{Ai.h}{section*.38}{}}
\@writefile{lol}{\contentsline {lstlisting}{\numberline {2.13}ai.h}{51}{lstlisting.2.13}\protected@file@percent }
\@writefile{toc}{\contentsline {subsection}{Analyze\_sentence.cpp}{52}{section*.39}\protected@file@percent }
\newlabel{sec:analyzesentencecpp}{{\M@TitleReference {2.2}{Analyze\_sentence.cpp}}{52}{Analyze\_sentence.cpp}{section*.39}{}}
\@writefile{lol}{\contentsline {lstlisting}{\numberline {2.14}analyze\_sentence.cpp}{52}{lstlisting.2.14}\protected@file@percent }
\@writefile{toc}{\contentsline {subsection}{Analyze\_sentence.h}{56}{section*.40}\protected@file@percent }
\newlabel{sec:analyzesentenceh}{{\M@TitleReference {2.2}{Analyze\_sentence.h}}{56}{Analyze\_sentence.h}{section*.40}{}}
\@writefile{lol}{\contentsline {lstlisting}{\numberline {2.15}analyze\_sentence.h}{56}{lstlisting.2.15}\protected@file@percent }
\@writefile{toc}{\contentsline {subsection}{Ansi.h}{57}{section*.41}\protected@file@percent }
\newlabel{sec:ansih}{{\M@TitleReference {2.2}{Ansi.h}}{57}{Ansi.h}{section*.41}{}}
\@writefile{lol}{\contentsline {lstlisting}{\numberline {2.16}ansi.h}{57}{lstlisting.2.16}\protected@file@percent }
\@writefile{toc}{\contentsline {subsection}{Debug.h}{58}{section*.42}\protected@file@percent }
\newlabel{sec:debugh}{{\M@TitleReference {2.2}{Debug.h}}{58}{Debug.h}{section*.42}{}}
\@writefile{lol}{\contentsline {lstlisting}{\numberline {2.17}debug.h}{58}{lstlisting.2.17}\protected@file@percent }
\@writefile{toc}{\contentsline {subsection}{Hi.cpp}{59}{section*.43}\protected@file@percent }
\newlabel{sec:hicpp}{{\M@TitleReference {2.2}{Hi.cpp}}{59}{Hi.cpp}{section*.43}{}}
\@writefile{lol}{\contentsline {lstlisting}{\numberline {2.18}hi.cpp}{59}{lstlisting.2.18}\protected@file@percent }
\@writefile{toc}{\contentsline {subsection}{Hi.h}{62}{section*.44}\protected@file@percent }
\newlabel{sec:hih}{{\M@TitleReference {2.2}{Hi.h}}{62}{Hi.h}{section*.44}{}}
\@writefile{lol}{\contentsline {lstlisting}{\numberline {2.19}hi.h}{62}{lstlisting.2.19}\protected@file@percent }
\@writefile{toc}{\contentsline {subsection}{Interface.h}{63}{section*.45}\protected@file@percent }
\newlabel{sec:interfaceh}{{\M@TitleReference {2.2}{Interface.h}}{63}{Interface.h}{section*.45}{}}
\@writefile{lol}{\contentsline {lstlisting}{\numberline {2.20}interface.h}{63}{lstlisting.2.20}\protected@file@percent }
\@writefile{toc}{\contentsline {subsection}{Load.cpp}{64}{section*.46}\protected@file@percent }
\newlabel{sec:loadcpp}{{\M@TitleReference {2.2}{Load.cpp}}{64}{Load.cpp}{section*.46}{}}
\@writefile{lol}{\contentsline {lstlisting}{\numberline {2.21}load.cpp}{64}{lstlisting.2.21}\protected@file@percent }
\@writefile{toc}{\contentsline {subsection}{Load.h}{65}{section*.47}\protected@file@percent }
\newlabel{sec:loadh}{{\M@TitleReference {2.2}{Load.h}}{65}{Load.h}{section*.47}{}}
\@writefile{lol}{\contentsline {lstlisting}{\numberline {2.22}load.h}{65}{lstlisting.2.22}\protected@file@percent }
\@writefile{toc}{\contentsline {subsection}{Options.cpp}{66}{section*.48}\protected@file@percent }
\newlabel{sec:optionscpp}{{\M@TitleReference {2.2}{Options.cpp}}{66}{Options.cpp}{section*.48}{}}
\@writefile{lol}{\contentsline {lstlisting}{\numberline {2.23}options.cpp}{66}{lstlisting.2.23}\protected@file@percent }
\@writefile{toc}{\contentsline {subsection}{Options.h}{66}{section*.49}\protected@file@percent }
\newlabel{sec:optionsh}{{\M@TitleReference {2.2}{Options.h}}{66}{Options.h}{section*.49}{}}
\@writefile{lol}{\contentsline {lstlisting}{\numberline {2.24}options.h}{66}{lstlisting.2.24}\protected@file@percent }
\@writefile{toc}{\contentsline {subsection}{Socket.cpp}{66}{section*.50}\protected@file@percent }
\newlabel{sec:socketcpp}{{\M@TitleReference {2.2}{Socket.cpp}}{66}{Socket.cpp}{section*.50}{}}
\@writefile{lol}{\contentsline {lstlisting}{\numberline {2.25}socket.cpp}{66}{lstlisting.2.25}\protected@file@percent }
\@writefile{toc}{\contentsline {subsection}{Socket.h}{68}{section*.51}\protected@file@percent }
\newlabel{sec:socketh}{{\M@TitleReference {2.2}{Socket.h}}{68}{Socket.h}{section*.51}{}}
\@writefile{lol}{\contentsline {lstlisting}{\numberline {2.26}socket.h}{68}{lstlisting.2.26}\protected@file@percent }
\@writefile{toc}{\contentsline {subsection}{Word.cpp}{69}{section*.52}\protected@file@percent }
\newlabel{sec:wordcpp}{{\M@TitleReference {2.2}{Word.cpp}}{69}{Word.cpp}{section*.52}{}}
\@writefile{lol}{\contentsline {lstlisting}{\numberline {2.27}word.cpp}{69}{lstlisting.2.27}\protected@file@percent }
\@writefile{toc}{\contentsline {subsection}{Word.h}{70}{section*.53}\protected@file@percent }
\newlabel{sec:wordh}{{\M@TitleReference {2.2}{Word.h}}{70}{Word.h}{section*.53}{}}
\@writefile{lol}{\contentsline {lstlisting}{\numberline {2.28}word.h}{70}{lstlisting.2.28}\protected@file@percent }
\@writefile{toc}{\contentsline {subsection}{Samantha.src}{71}{section*.54}\protected@file@percent }
\newlabel{sec:samanthascr}{{\M@TitleReference {2.2}{Samantha.src}}{71}{Samantha.src}{section*.54}{}}
\@writefile{lol}{\contentsline {lstlisting}{\numberline {2.29}samantha.scr}{71}{lstlisting.2.29}\protected@file@percent }
\@writefile{toc}{\contentsline {subsection}{Samantha-load.scr}{73}{section*.55}\protected@file@percent }
\newlabel{sec:samanthaloadscr}{{\M@TitleReference {2.2}{Samantha-load.scr}}{73}{Samantha-load.scr}{section*.55}{}}
\@writefile{lol}{\contentsline {lstlisting}{\numberline {2.30}samantha-load.scr}{73}{lstlisting.2.30}\protected@file@percent }
\@writefile{toc}{\contentsline {subsection}{Title.scr}{75}{section*.56}\protected@file@percent }
\newlabel{sec:titlescr}{{\M@TitleReference {2.2}{Title.scr}}{75}{Title.scr}{section*.56}{}}
\@writefile{lol}{\contentsline {lstlisting}{\numberline {2.31}title.scr}{75}{lstlisting.2.31}\protected@file@percent }
\@writefile{toc}{\contentsline {chapter}{Glosario}{77}{section*.57}\protected@file@percent }
\bibcite{Boids}{1}
\bibcite{Freeling}{2}
\bibcite{HER}{3}
\bibcite{BMW: Coches autónomos}{4}
\bibcite{Repositorio GitLab}{5}
\@writefile{toc}{\contentsline {chapter}{Bibliografía}{79}{chapter*.59}\protected@file@percent }
\memsetcounter{lastsheet}{87}
\memsetcounter{lastpage}{79}
